name: Race
description: |-
  Operations related to races.
  這裡的種族就是寶可夢的意思
endpoints:
  -
    httpMethods:
      - GET
    uri: api/races
    metadata:
      groupName: Race
      groupDescription: |-
        Operations related to races.
        這裡的種族就是寶可夢的意思
      subgroup: ''
      subgroupDescription: ''
      title: 取得寶可夢種族的列表。
      description: |-
        此API不需要驗證。
        此方法返回一個包含所有寶可夢種族的列表，
        每個種族包括其ID、名稱和照片。列表會分頁，每頁包含12個項目。
      authenticated: false
      custom: []
    headers:
      Content-Type: application/json
      Accept: application/json
      Authorization: 'Bearer '
    urlParameters: []
    cleanUrlParameters: []
    queryParameters: []
    cleanQueryParameters: []
    bodyParameters: []
    cleanBodyParameters: []
    fileParameters: []
    responses:
      -
        status: 200
        content: |-
          {
          "current_page": 1,
          "data": [
          {
          "id": 1,
          "name": "bulbasaur",
          "photo": "https://raw.githubusercontent.com/PokeAPI/*sprites/master/sprites/pokemon/1.png"
          "stock":334,
          "price":2344
          },
          {
          "id": 2,
          "name": "ivysaur",
          "photo": "https://raw.githubusercontent.com/PokeAPI/*sprites/master/sprites/pokemon/2.png",
          "stock":334,
          "price":2344
          },
          {
          "id": 3,
          "name": "venusaur",
          "photo": "https://raw.githubusercontent.com/PokeAPI/*sprites/master/sprites/pokemon/3.png",
          "stock":334,
          "price":2344
          },...

          ],
          "first_page_url": "http://localhost:8000/api/races?page=1",
          "from": 1,
          "last_page": 85,
          "last_page_url": "http://localhost:8000/api/races?page=85",
          "next_page_url": "http://localhost:8000/api/races?page=2",
          "path": "http://localhost:8000/api/races",
          "per_page": 12,
          "prev_page_url": null,
          "to": 12,
          "total": 1010
          }
        headers: []
        description: ''
        custom: []
    responseFields: []
    auth: []
    controller: null
    method: null
    route: null
    custom: []
